[
  {
    "__docId__": 1,
    "kind": "external",
    "name": "Infinity",
    "externalLink": "https://developer.mozilla.org/en-US/docs/Web/JavaScript/Reference/Global_Objects/Infinity",
    "memberof": "server/.external-ecmascript.js",
    "static": true,
    "longname": "server/.external-ecmascript.js~Infinity",
    "access": "public",
    "description": "",
    "builtinExternal": true
  },
  {
    "__docId__": 2,
    "kind": "external",
    "name": "NaN",
    "externalLink": "https://developer.mozilla.org/en-US/docs/Web/JavaScript/Reference/Global_Objects/NaN",
    "memberof": "server/.external-ecmascript.js",
    "static": true,
    "longname": "server/.external-ecmascript.js~NaN",
    "access": "public",
    "description": "",
    "builtinExternal": true
  },
  {
    "__docId__": 3,
    "kind": "external",
    "name": "undefined",
    "externalLink": "https://developer.mozilla.org/en-US/docs/Web/JavaScript/Reference/Global_Objects/undefined",
    "memberof": "server/.external-ecmascript.js",
    "static": true,
    "longname": "server/.external-ecmascript.js~undefined",
    "access": "public",
    "description": "",
    "builtinExternal": true
  },
  {
    "__docId__": 4,
    "kind": "external",
    "name": "null",
    "externalLink": "https://developer.mozilla.org/en-US/docs/Web/JavaScript/Reference/Global_Objects/null",
    "memberof": "server/.external-ecmascript.js",
    "static": true,
    "longname": "server/.external-ecmascript.js~null",
    "access": "public",
    "description": "",
    "builtinExternal": true
  },
  {
    "__docId__": 5,
    "kind": "external",
    "name": "Object",
    "externalLink": "https://developer.mozilla.org/en-US/docs/Web/JavaScript/Reference/Global_Objects/Object",
    "memberof": "server/.external-ecmascript.js",
    "static": true,
    "longname": "server/.external-ecmascript.js~Object",
    "access": "public",
    "description": "",
    "builtinExternal": true
  },
  {
    "__docId__": 6,
    "kind": "external",
    "name": "object",
    "externalLink": "https://developer.mozilla.org/en-US/docs/Web/JavaScript/Reference/Global_Objects/Object",
    "memberof": "server/.external-ecmascript.js",
    "static": true,
    "longname": "server/.external-ecmascript.js~object",
    "access": "public",
    "description": "",
    "builtinExternal": true
  },
  {
    "__docId__": 7,
    "kind": "external",
    "name": "Function",
    "externalLink": "https://developer.mozilla.org/en-US/docs/Web/JavaScript/Reference/Global_Objects/Function",
    "memberof": "server/.external-ecmascript.js",
    "static": true,
    "longname": "server/.external-ecmascript.js~Function",
    "access": "public",
    "description": "",
    "builtinExternal": true
  },
  {
    "__docId__": 8,
    "kind": "external",
    "name": "function",
    "externalLink": "https://developer.mozilla.org/en-US/docs/Web/JavaScript/Reference/Global_Objects/Function",
    "memberof": "server/.external-ecmascript.js",
    "static": true,
    "longname": "server/.external-ecmascript.js~function",
    "access": "public",
    "description": "",
    "builtinExternal": true
  },
  {
    "__docId__": 9,
    "kind": "external",
    "name": "Boolean",
    "externalLink": "https://developer.mozilla.org/en-US/docs/Web/JavaScript/Reference/Global_Objects/Boolean",
    "memberof": "server/.external-ecmascript.js",
    "static": true,
    "longname": "server/.external-ecmascript.js~Boolean",
    "access": "public",
    "description": "",
    "builtinExternal": true
  },
  {
    "__docId__": 10,
    "kind": "external",
    "name": "boolean",
    "externalLink": "https://developer.mozilla.org/en-US/docs/Web/JavaScript/Reference/Global_Objects/Boolean",
    "memberof": "server/.external-ecmascript.js",
    "static": true,
    "longname": "server/.external-ecmascript.js~boolean",
    "access": "public",
    "description": "",
    "builtinExternal": true
  },
  {
    "__docId__": 11,
    "kind": "external",
    "name": "Symbol",
    "externalLink": "https://developer.mozilla.org/en-US/docs/Web/JavaScript/Reference/Global_Objects/Symbol",
    "memberof": "server/.external-ecmascript.js",
    "static": true,
    "longname": "server/.external-ecmascript.js~Symbol",
    "access": "public",
    "description": "",
    "builtinExternal": true
  },
  {
    "__docId__": 12,
    "kind": "external",
    "name": "Error",
    "externalLink": "https://developer.mozilla.org/en-US/docs/Web/JavaScript/Reference/Global_Objects/Error",
    "memberof": "server/.external-ecmascript.js",
    "static": true,
    "longname": "server/.external-ecmascript.js~Error",
    "access": "public",
    "description": "",
    "builtinExternal": true
  },
  {
    "__docId__": 13,
    "kind": "external",
    "name": "EvalError",
    "externalLink": "https://developer.mozilla.org/en-US/docs/Web/JavaScript/Reference/Global_Objects/EvalError",
    "memberof": "server/.external-ecmascript.js",
    "static": true,
    "longname": "server/.external-ecmascript.js~EvalError",
    "access": "public",
    "description": "",
    "builtinExternal": true
  },
  {
    "__docId__": 14,
    "kind": "external",
    "name": "InternalError",
    "externalLink": "https://developer.mozilla.org/en-US/docs/Web/JavaScript/Reference/Global_Objects/InternalError",
    "memberof": "server/.external-ecmascript.js",
    "static": true,
    "longname": "server/.external-ecmascript.js~InternalError",
    "access": "public",
    "description": "",
    "builtinExternal": true
  },
  {
    "__docId__": 15,
    "kind": "external",
    "name": "RangeError",
    "externalLink": "https://developer.mozilla.org/en-US/docs/Web/JavaScript/Reference/Global_Objects/RangeError",
    "memberof": "server/.external-ecmascript.js",
    "static": true,
    "longname": "server/.external-ecmascript.js~RangeError",
    "access": "public",
    "description": "",
    "builtinExternal": true
  },
  {
    "__docId__": 16,
    "kind": "external",
    "name": "ReferenceError",
    "externalLink": "https://developer.mozilla.org/en-US/docs/Web/JavaScript/Reference/Global_Objects/ReferenceError",
    "memberof": "server/.external-ecmascript.js",
    "static": true,
    "longname": "server/.external-ecmascript.js~ReferenceError",
    "access": "public",
    "description": "",
    "builtinExternal": true
  },
  {
    "__docId__": 17,
    "kind": "external",
    "name": "SyntaxError",
    "externalLink": "https://developer.mozilla.org/en-US/docs/Web/JavaScript/Reference/Global_Objects/SyntaxError",
    "memberof": "server/.external-ecmascript.js",
    "static": true,
    "longname": "server/.external-ecmascript.js~SyntaxError",
    "access": "public",
    "description": "",
    "builtinExternal": true
  },
  {
    "__docId__": 18,
    "kind": "external",
    "name": "TypeError",
    "externalLink": "https://developer.mozilla.org/en-US/docs/Web/JavaScript/Reference/Global_Objects/TypeError",
    "memberof": "server/.external-ecmascript.js",
    "static": true,
    "longname": "server/.external-ecmascript.js~TypeError",
    "access": "public",
    "description": "",
    "builtinExternal": true
  },
  {
    "__docId__": 19,
    "kind": "external",
    "name": "URIError",
    "externalLink": "https://developer.mozilla.org/en-US/docs/Web/JavaScript/Reference/Global_Objects/URIError",
    "memberof": "server/.external-ecmascript.js",
    "static": true,
    "longname": "server/.external-ecmascript.js~URIError",
    "access": "public",
    "description": "",
    "builtinExternal": true
  },
  {
    "__docId__": 20,
    "kind": "external",
    "name": "Number",
    "externalLink": "https://developer.mozilla.org/en-US/docs/Web/JavaScript/Reference/Global_Objects/Number",
    "memberof": "server/.external-ecmascript.js",
    "static": true,
    "longname": "server/.external-ecmascript.js~Number",
    "access": "public",
    "description": "",
    "builtinExternal": true
  },
  {
    "__docId__": 21,
    "kind": "external",
    "name": "number",
    "externalLink": "https://developer.mozilla.org/en-US/docs/Web/JavaScript/Reference/Global_Objects/Number",
    "memberof": "server/.external-ecmascript.js",
    "static": true,
    "longname": "server/.external-ecmascript.js~number",
    "access": "public",
    "description": "",
    "builtinExternal": true
  },
  {
    "__docId__": 22,
    "kind": "external",
    "name": "Date",
    "externalLink": "https://developer.mozilla.org/en-US/docs/Web/JavaScript/Reference/Global_Objects/Date",
    "memberof": "server/.external-ecmascript.js",
    "static": true,
    "longname": "server/.external-ecmascript.js~Date",
    "access": "public",
    "description": "",
    "builtinExternal": true
  },
  {
    "__docId__": 23,
    "kind": "external",
    "name": "String",
    "externalLink": "https://developer.mozilla.org/en-US/docs/Web/JavaScript/Reference/Global_Objects/String",
    "memberof": "server/.external-ecmascript.js",
    "static": true,
    "longname": "server/.external-ecmascript.js~String",
    "access": "public",
    "description": "",
    "builtinExternal": true
  },
  {
    "__docId__": 24,
    "kind": "external",
    "name": "string",
    "externalLink": "https://developer.mozilla.org/en-US/docs/Web/JavaScript/Reference/Global_Objects/String",
    "memberof": "server/.external-ecmascript.js",
    "static": true,
    "longname": "server/.external-ecmascript.js~string",
    "access": "public",
    "description": "",
    "builtinExternal": true
  },
  {
    "__docId__": 25,
    "kind": "external",
    "name": "RegExp",
    "externalLink": "https://developer.mozilla.org/en-US/docs/Web/JavaScript/Reference/Global_Objects/RegExp",
    "memberof": "server/.external-ecmascript.js",
    "static": true,
    "longname": "server/.external-ecmascript.js~RegExp",
    "access": "public",
    "description": "",
    "builtinExternal": true
  },
  {
    "__docId__": 26,
    "kind": "external",
    "name": "Array",
    "externalLink": "https://developer.mozilla.org/en-US/docs/Web/JavaScript/Reference/Global_Objects/Array",
    "memberof": "server/.external-ecmascript.js",
    "static": true,
    "longname": "server/.external-ecmascript.js~Array",
    "access": "public",
    "description": "",
    "builtinExternal": true
  },
  {
    "__docId__": 27,
    "kind": "external",
    "name": "Int8Array",
    "externalLink": "https://developer.mozilla.org/en-US/docs/Web/JavaScript/Reference/Global_Objects/Int8Array",
    "memberof": "server/.external-ecmascript.js",
    "static": true,
    "longname": "server/.external-ecmascript.js~Int8Array",
    "access": "public",
    "description": "",
    "builtinExternal": true
  },
  {
    "__docId__": 28,
    "kind": "external",
    "name": "Uint8Array",
    "externalLink": "https://developer.mozilla.org/en-US/docs/Web/JavaScript/Reference/Global_Objects/Uint8Array",
    "memberof": "server/.external-ecmascript.js",
    "static": true,
    "longname": "server/.external-ecmascript.js~Uint8Array",
    "access": "public",
    "description": "",
    "builtinExternal": true
  },
  {
    "__docId__": 29,
    "kind": "external",
    "name": "Uint8ClampedArray",
    "externalLink": "https://developer.mozilla.org/en-US/docs/Web/JavaScript/Reference/Global_Objects/Uint8ClampedArray",
    "memberof": "server/.external-ecmascript.js",
    "static": true,
    "longname": "server/.external-ecmascript.js~Uint8ClampedArray",
    "access": "public",
    "description": "",
    "builtinExternal": true
  },
  {
    "__docId__": 30,
    "kind": "external",
    "name": "Int16Array",
    "externalLink": "https://developer.mozilla.org/en-US/docs/Web/JavaScript/Reference/Global_Objects/Int16Array",
    "memberof": "server/.external-ecmascript.js",
    "static": true,
    "longname": "server/.external-ecmascript.js~Int16Array",
    "access": "public",
    "description": "",
    "builtinExternal": true
  },
  {
    "__docId__": 31,
    "kind": "external",
    "name": "Uint16Array",
    "externalLink": "https://developer.mozilla.org/en-US/docs/Web/JavaScript/Reference/Global_Objects/Uint16Array",
    "memberof": "server/.external-ecmascript.js",
    "static": true,
    "longname": "server/.external-ecmascript.js~Uint16Array",
    "access": "public",
    "description": "",
    "builtinExternal": true
  },
  {
    "__docId__": 32,
    "kind": "external",
    "name": "Int32Array",
    "externalLink": "https://developer.mozilla.org/en-US/docs/Web/JavaScript/Reference/Global_Objects/Int32Array",
    "memberof": "server/.external-ecmascript.js",
    "static": true,
    "longname": "server/.external-ecmascript.js~Int32Array",
    "access": "public",
    "description": "",
    "builtinExternal": true
  },
  {
    "__docId__": 33,
    "kind": "external",
    "name": "Uint32Array",
    "externalLink": "https://developer.mozilla.org/en-US/docs/Web/JavaScript/Reference/Global_Objects/Uint32Array",
    "memberof": "server/.external-ecmascript.js",
    "static": true,
    "longname": "server/.external-ecmascript.js~Uint32Array",
    "access": "public",
    "description": "",
    "builtinExternal": true
  },
  {
    "__docId__": 34,
    "kind": "external",
    "name": "Float32Array",
    "externalLink": "https://developer.mozilla.org/en-US/docs/Web/JavaScript/Reference/Global_Objects/Float32Array",
    "memberof": "server/.external-ecmascript.js",
    "static": true,
    "longname": "server/.external-ecmascript.js~Float32Array",
    "access": "public",
    "description": "",
    "builtinExternal": true
  },
  {
    "__docId__": 35,
    "kind": "external",
    "name": "Float64Array",
    "externalLink": "https://developer.mozilla.org/en-US/docs/Web/JavaScript/Reference/Global_Objects/Float64Array",
    "memberof": "server/.external-ecmascript.js",
    "static": true,
    "longname": "server/.external-ecmascript.js~Float64Array",
    "access": "public",
    "description": "",
    "builtinExternal": true
  },
  {
    "__docId__": 36,
    "kind": "external",
    "name": "Map",
    "externalLink": "https://developer.mozilla.org/en-US/docs/Web/JavaScript/Reference/Global_Objects/Map",
    "memberof": "server/.external-ecmascript.js",
    "static": true,
    "longname": "server/.external-ecmascript.js~Map",
    "access": "public",
    "description": "",
    "builtinExternal": true
  },
  {
    "__docId__": 37,
    "kind": "external",
    "name": "Set",
    "externalLink": "https://developer.mozilla.org/en-US/docs/Web/JavaScript/Reference/Global_Objects/Set",
    "memberof": "server/.external-ecmascript.js",
    "static": true,
    "longname": "server/.external-ecmascript.js~Set",
    "access": "public",
    "description": "",
    "builtinExternal": true
  },
  {
    "__docId__": 38,
    "kind": "external",
    "name": "WeakMap",
    "externalLink": "https://developer.mozilla.org/en-US/docs/Web/JavaScript/Reference/Global_Objects/WeakMap",
    "memberof": "server/.external-ecmascript.js",
    "static": true,
    "longname": "server/.external-ecmascript.js~WeakMap",
    "access": "public",
    "description": "",
    "builtinExternal": true
  },
  {
    "__docId__": 39,
    "kind": "external",
    "name": "WeakSet",
    "externalLink": "https://developer.mozilla.org/en-US/docs/Web/JavaScript/Reference/Global_Objects/WeakSet",
    "memberof": "server/.external-ecmascript.js",
    "static": true,
    "longname": "server/.external-ecmascript.js~WeakSet",
    "access": "public",
    "description": "",
    "builtinExternal": true
  },
  {
    "__docId__": 40,
    "kind": "external",
    "name": "ArrayBuffer",
    "externalLink": "https://developer.mozilla.org/en-US/docs/Web/JavaScript/Reference/Global_Objects/ArrayBuffer",
    "memberof": "server/.external-ecmascript.js",
    "static": true,
    "longname": "server/.external-ecmascript.js~ArrayBuffer",
    "access": "public",
    "description": "",
    "builtinExternal": true
  },
  {
    "__docId__": 41,
    "kind": "external",
    "name": "DataView",
    "externalLink": "https://developer.mozilla.org/en-US/docs/Web/JavaScript/Reference/Global_Objects/DataView",
    "memberof": "server/.external-ecmascript.js",
    "static": true,
    "longname": "server/.external-ecmascript.js~DataView",
    "access": "public",
    "description": "",
    "builtinExternal": true
  },
  {
    "__docId__": 42,
    "kind": "external",
    "name": "JSON",
    "externalLink": "https://developer.mozilla.org/en-US/docs/Web/JavaScript/Reference/Global_Objects/JSON",
    "memberof": "server/.external-ecmascript.js",
    "static": true,
    "longname": "server/.external-ecmascript.js~JSON",
    "access": "public",
    "description": "",
    "builtinExternal": true
  },
  {
    "__docId__": 43,
    "kind": "external",
    "name": "Promise",
    "externalLink": "https://developer.mozilla.org/en-US/docs/Web/JavaScript/Reference/Global_Objects/Promise",
    "memberof": "server/.external-ecmascript.js",
    "static": true,
    "longname": "server/.external-ecmascript.js~Promise",
    "access": "public",
    "description": "",
    "builtinExternal": true
  },
  {
    "__docId__": 44,
    "kind": "external",
    "name": "Generator",
    "externalLink": "https://developer.mozilla.org/en-US/docs/Web/JavaScript/Reference/Global_Objects/Generator",
    "memberof": "server/.external-ecmascript.js",
    "static": true,
    "longname": "server/.external-ecmascript.js~Generator",
    "access": "public",
    "description": "",
    "builtinExternal": true
  },
  {
    "__docId__": 45,
    "kind": "external",
    "name": "GeneratorFunction",
    "externalLink": "https://developer.mozilla.org/en-US/docs/Web/JavaScript/Reference/Global_Objects/GeneratorFunction",
    "memberof": "server/.external-ecmascript.js",
    "static": true,
    "longname": "server/.external-ecmascript.js~GeneratorFunction",
    "access": "public",
    "description": "",
    "builtinExternal": true
  },
  {
    "__docId__": 46,
    "kind": "external",
    "name": "Reflect",
    "externalLink": "https://developer.mozilla.org/en-US/docs/Web/JavaScript/Reference/Global_Objects/Reflect",
    "memberof": "server/.external-ecmascript.js",
    "static": true,
    "longname": "server/.external-ecmascript.js~Reflect",
    "access": "public",
    "description": "",
    "builtinExternal": true
  },
  {
    "__docId__": 47,
    "kind": "external",
    "name": "Proxy",
    "externalLink": "https://developer.mozilla.org/en-US/docs/Web/JavaScript/Reference/Global_Objects/Proxy",
    "memberof": "server/.external-ecmascript.js",
    "static": true,
    "longname": "server/.external-ecmascript.js~Proxy",
    "access": "public",
    "description": "",
    "builtinExternal": true
  },
  {
    "__docId__": 48,
    "kind": "file",
    "name": "server/authentication.js",
    "content": "",
    "static": true,
    "longname": "/home/kenneth/Projects/block5d-backend/server/authentication.js",
    "access": "public",
    "description": null,
    "lineNumber": 1
  },
  {
    "__docId__": 49,
    "kind": "file",
    "name": "server/config/development.js",
    "content": "",
    "static": true,
    "longname": "/home/kenneth/Projects/block5d-backend/server/config/development.js",
    "access": "public",
    "description": null,
    "lineNumber": 1
  },
  {
    "__docId__": 50,
    "kind": "file",
    "name": "server/config/index.js",
    "content": "",
    "static": true,
    "longname": "/home/kenneth/Projects/block5d-backend/server/config/index.js",
    "access": "public",
    "description": null,
    "lineNumber": 1
  },
  {
    "__docId__": 51,
    "kind": "file",
    "name": "server/mongohelper.js",
    "content": "",
    "static": true,
    "longname": "/home/kenneth/Projects/block5d-backend/server/mongohelper.js",
    "access": "public",
    "description": null,
    "lineNumber": 1
  },
  {
    "__docId__": 52,
    "kind": "file",
    "name": "server/production.js",
    "content": "",
    "static": true,
    "longname": "/home/kenneth/Projects/block5d-backend/server/production.js",
    "access": "public",
    "description": null,
    "lineNumber": 1
  },
  {
    "__docId__": 53,
    "kind": "file",
    "name": "server/server.js",
    "content": "\"use strict\";\nvar express = require('express');\nvar cors = require('cors');\nvar bodyParser = require('body-parser');\nvar compression = require('compression')\n\nvar app = express();\n\napp.use(compression())\napp.disable('x-power-by');\napp.use(cors({optionSuccessStatus: 200}));\n\napp.use(bodyParser.urlencoded({limit: '50mb', extended: true}));\napp.use(bodyParser.json({limit: '50mb'}));\n\nvar port = process.env.NODE_ENV === 'production' ? process.env.PORT : 4000;\nvar server = app.listen(port, function(){\n    console.log(\"Server listening on port \" + port);\n});\n\nmodule.exports = app;",
    "static": true,
    "longname": "/home/kenneth/Projects/block5d-backend/server/server.js",
    "access": "public",
    "description": null,
    "lineNumber": 1
  },
  {
    "__docId__": 54,
    "kind": "variable",
    "name": "express",
    "memberof": "server/server.js",
    "static": true,
    "longname": "server/server.js~express",
    "access": "public",
    "export": false,
    "importPath": "block5d-backend/server/server.js",
    "importStyle": null,
    "description": null,
    "lineNumber": 2,
    "undocument": true,
    "type": {
      "types": [
        "*"
      ]
    },
    "ignore": true
  },
  {
    "__docId__": 55,
    "kind": "variable",
    "name": "cors",
    "memberof": "server/server.js",
    "static": true,
    "longname": "server/server.js~cors",
    "access": "public",
    "export": false,
    "importPath": "block5d-backend/server/server.js",
    "importStyle": null,
    "description": null,
    "lineNumber": 3,
    "undocument": true,
    "type": {
      "types": [
        "*"
      ]
    },
    "ignore": true
  },
  {
    "__docId__": 56,
    "kind": "variable",
    "name": "bodyParser",
    "memberof": "server/server.js",
    "static": true,
    "longname": "server/server.js~bodyParser",
    "access": "public",
    "export": false,
    "importPath": "block5d-backend/server/server.js",
    "importStyle": null,
    "description": null,
    "lineNumber": 4,
    "undocument": true,
    "type": {
      "types": [
        "*"
      ]
    },
    "ignore": true
  },
  {
    "__docId__": 57,
    "kind": "variable",
    "name": "compression",
    "memberof": "server/server.js",
    "static": true,
    "longname": "server/server.js~compression",
    "access": "public",
    "export": false,
    "importPath": "block5d-backend/server/server.js",
    "importStyle": null,
    "description": null,
    "lineNumber": 5,
    "undocument": true,
    "type": {
      "types": [
        "*"
      ]
    },
    "ignore": true
  },
  {
    "__docId__": 58,
    "kind": "variable",
    "name": "app",
    "memberof": "server/server.js",
    "static": true,
    "longname": "server/server.js~app",
    "access": "public",
    "export": false,
    "importPath": "block5d-backend/server/server.js",
    "importStyle": null,
    "description": null,
    "lineNumber": 7,
    "undocument": true,
    "type": {
      "types": [
        "*"
      ]
    },
    "ignore": true
  },
  {
    "__docId__": 59,
    "kind": "variable",
    "name": "port",
    "memberof": "server/server.js",
    "static": true,
    "longname": "server/server.js~port",
    "access": "public",
    "export": false,
    "importPath": "block5d-backend/server/server.js",
    "importStyle": null,
    "description": null,
    "lineNumber": 16,
    "undocument": true,
    "type": {
      "types": [
        "*"
      ]
    },
    "ignore": true
  },
  {
    "__docId__": 60,
    "kind": "variable",
    "name": "server",
    "memberof": "server/server.js",
    "static": true,
    "longname": "server/server.js~server",
    "access": "public",
    "export": false,
    "importPath": "block5d-backend/server/server.js",
    "importStyle": null,
    "description": null,
    "lineNumber": 17,
    "undocument": true,
    "type": {
      "types": [
        "*"
      ]
    },
    "ignore": true
  },
  {
    "__docId__": 61,
    "kind": "file",
    "name": "server/sqldatabase.js",
    "content": "",
    "static": true,
    "longname": "/home/kenneth/Projects/block5d-backend/server/sqldatabase.js",
    "access": "public",
    "description": null,
    "lineNumber": 1
  },
  {
    "kind": "index",
    "content": "# README #\nSarah\ncherylyigi\nThis README would normally document whatever steps are necessary to get your application up and running.\n\n### What is this repository for? ###\n\n* Quick summary\n* Version\n* [Learn Markdown](https://bitbucket.org/tutorials/markdowndemo)\n\n### How do I get set up? ###\n\n* Summary of set up\n* Configuration\n* Dependencies\n* Database configuration\n* How to run tests\n* Deployment instructions\n\n### Contribution guidelines ###\n\n* Writing tests\n* Code review\n* Other guidelines\n\n### Who do I talk to? ###\n\n* Repo owner or admin\n* Other community or team contact\n",
    "longname": "/home/kenneth/Projects/block5d-backend/README.md",
    "name": "./README.md",
    "static": true,
    "access": "public"
  },
  {
    "kind": "packageJSON",
    "content": "{\n  \"name\": \"block5d-backend\",\n  \"version\": \"1.0.0\",\n  \"description\": \"Server side for block5d web app\",\n  \"main\": \"server.js\",\n  \"scripts\": {\n    \"start\": \"npm install; node server.js\",\n    \"esdoc\": \"./node_modules/.bin/esdoc\",\n    \"test\": \"jest\"\n  },\n  \"repository\": {\n    \"type\": \"git\",\n    \"url\": \"https://bitbucket.org/block5dsingapore/block5d-backend.git\"\n  },\n  \"author\": \"NUS ISS\",\n  \"license\": \"MIT\",\n  \"homepage\": \"https://bitbucket.org/block5dsingapore/block5d-backend#readme\",\n  \"dependencies\": {\n    \"bcryptjs\": \"^2.4.3\",\n    \"body-parser\": \"^1.18.1\",\n    \"compression\": \"^1.7.1\",\n    \"cors\": \"^2.8.4\",\n    \"express\": \"^4.15.4\",\n    \"lodash\": \"^4.17.4\",\n    \"mongodb\": \"^2.2.31\",\n    \"mongoskin\": \"^2.1.0\",\n    \"q\": \"^1.5.0\",\n    \"request\": \"^2.81.0\",\n    \"rootpath\": \"^0.1.2\"\n  },\n  \"devDependencies\": {\n    \"babel-cli\": \"^6.26.0\",\n    \"babel-preset-env\": \"^1.6.0\",\n    \"esdoc\": \"^1.0.3\",\n    \"esdoc-standard-plugin\": \"^1.0.0\",\n    \"jest\": \"^21.2.1\",\n    \"superagent\": \"^3.6.0\",\n    \"supertest\": \"^3.0.0\"\n  }\n}\n",
    "longname": "/home/kenneth/Projects/block5d-backend/package.json",
    "name": "package.json",
    "static": true,
    "access": "public"
  }
]